<?xml version="1.0" standalone="no"?>
<!DOCTYPE svg PUBLIC "-//W3C//DTD SVG 20010904//EN"
 "http://www.w3.org/TR/2001/REC-SVG-20010904/DTD/svg10.dtd">
<svg version="1.0" xmlns="http://www.w3.org/2000/svg"
 width="712.000000pt" height="712.000000pt" viewBox="0 0 712.000000 712.000000"
 preserveAspectRatio="xMidYMid meet">
<metadata>
Created by potrace 1.14, written by Peter Selinger 2001-2017
</metadata>
<g transform="translate(0.000000,712.000000) scale(0.100000,-0.100000)"
fill="#000000" stroke="none">
<path d="M2405 6476 l644 -644 -79 -78 c-44 -44 -547 -546 -1118 -1116 -635
-633 -1055 -1060 -1078 -1095 -57 -85 -105 -198 -121 -281 -12 -65 -10 -256 3
-315 26 -112 69 -205 133 -291 52 -69 1219 -1238 1232 -1234 4 2 141 134 304
293 163 160 314 307 335 327 l38 37 -51 43 c-158 134 -262 230 -457 423 -109
108 -153 154 -250 265 -89 101 -134 259 -107 375 5 22 11 50 13 62 2 12 19 50
36 84 28 55 130 160 790 821 727 726 761 758 830 792 89 42 142 53 234 50 82
-3 166 -31 239 -80 28 -18 309 -292 625 -609 l574 -575 648 0 c356 0 648 2
648 5 0 6 -460 464 -1570 1565 -424 421 -1011 1002 -1303 1293 l-531 527 -652
0 -653 0 644 -644z"/>
<path d="M4579 1896 c-497 -496 -603 -597 -649 -619 -164 -78 -339 -68 -479
26 -24 16 -150 136 -280 266 -130 130 -244 242 -253 249 -15 12 -26 4 -91 -60
-42 -40 -188 -183 -326 -318 -138 -134 -251 -248 -251 -252 0 -4 219 -227 488
-495 489 -488 550 -543 667 -593 247 -106 540 -73 755 84 47 34 2310 2286
2310 2299 0 2 -292 4 -648 5 l-649 0 -594 -592z"/>
</g>
</svg>
